Introduction to Statistics and Data Science - 1 Getting Started with Data in R
…
airlines: A table matching airline names and their two letter IATA airline codes (also known as carrier codes) for 16 airline companies

planes: Information about each of 3,322 physical aircraft used.

weather: Hourly meteorological data for each of the three NYC airports. This data frame has 26,115 rows, roughtly corresponding to the 365 \(\times\) 24 \(\times\) 3 = 26,280 possible hourly measurements one can observe at three locations over the course of a year.

airports: Airport names, codes, and locations for 1,458 destination airports.

1.4.2 flights data frame

We will begin by exploring the flights data frame that is included in the nycflights13 package and getting an idea of its structure. Run the following code in your console (either by typing it or cutting & pasting it): it loads in the flights dataset into your Console. Note depending on the size of your monitor, the output may vary slightly.

flights

# A tibble: 336,776 × 19
    year month   day dep_time sched_de…¹ dep_d…² arr_t…³ sched…⁴ arr_d…⁵ carrier
   <int> <int> <int>    <int>      <int>   <dbl>   <int>   <int>   <dbl> <chr>  
 1  2013     1     1      517        515       2     830     819      11 UA     
 2  2013     1     1      533        529       4     850     830      20 UA     
 3  2013     1     1      542        540       2     923     850      33 AA     
 4  2013     1     1      544        545      -1    1004    1022     -18 B6     
 5  2013     1     1      554        600      -6     812     837     -25 DL     
 6  2013     1     1      554        558      -4     740     728      12 UA     
 7  2013     1     1      555        600      -5     913     854      19 B6     
 8  2013     1     1      557        600      -3     709     723     -14 EV     
 9  2013     1     1      557        600      -3     838     846      -8 B6     
10  2013     1     1      558        600      -2     753     745       8 AA     
# … with 336,766 more rows, 9 more variables: flight <int>, tailnum <chr>,
#   origin <chr>, dest <chr>, air_time <dbl>, distance <dbl>, hour <dbl>,
#   minute <dbl>, time_hour <dttm>, and abbreviated variable names
#   ¹​sched_dep_time, ²​dep_delay, ³​arr_time, ⁴​sched_arr_time, ⁵​arr_delay
…
