Appendix B — Exercise solutions – Introduction to Statistics and Data Science
…
# A tibble: 1 × 4
  player      pts_tm pts_opp spread
  <chr>        <dbl>   <dbl>  <dbl>
1 Kobe Bryant    112      57     55

# Alternate code
nba_spread <- nba %>%
  group_by(player) %>%
  mutate(spread = pts_tm - pts_opp ) %>% 
  select(player, pts_tm, pts_opp, spread)

nba_spread %>% arrange(desc(spread))

# A tibble: 4,747 × 4
# Groups:   player [3]
   player         pts_tm pts_opp spread
   <chr>           <dbl>   <dbl>  <dbl>
 1 Kobe Bryant       112      57     55
 2 Michael Jordan    129      82     47
 3 Kobe Bryant       113      67     46
 4 Kobe Bryant       113      67     46
 5 Michael Jordan    114      69     45
 6 Michael Jordan    140      96     44
 7 LeBron James      130      86     44
 8 Michael Jordan    123      81     42
 9 Michael Jordan    111      69     42
10 Michael Jordan     96      54     42
# ℹ 4,737 more rows
…
`summarise()` has grouped output by 'location_key'. You can override using the
`.groups` argument.

covid_joined <- covid_join %>%
  inner_join(covid_dem, by= "location_key")

covid_joined

# A tibble: 59 × 18
# Groups:   location_key [59]
   location_key state total_new_confirmed total_new_deceased total_new_recovered
   <chr>        <chr>               <dbl>              <dbl>               <dbl>
 1 US_AK        Alas…              280233               1316                7136
 2 US_AL        Alab…             1470163              20047              287739
 3 US_AR        Arka…              923512              11861              315506
 4 US_AS        Amer…                8038                 33                   0
 5 US_AZ        Ariz…             2237208              30982                   0
 6 US_CA        Cali…            10215676              93827                   0
 7 US_CA_SFO    Cali…              220840                  0                   0
 8 US_CO        Colo…             1627583              13235                   0
 9 US_CT        Conn…              869372              11180                5454
10 US_DC        Dist…              136577               1377               34968
# ℹ 49 more rows
# ℹ 13 more variables: total_new_tested <dbl>, population <dbl>,
#   population_male <dbl>, population_female <dbl>, population_age_00_09 <dbl>,
#   population_age_10_19 <dbl>, population_age_20_29 <dbl>,
#   population_age_30_39 <dbl>, population_age_40_49 <dbl>,
#   population_age_50_59 <dbl>, population_age_60_69 <dbl>,
#   population_age_70_79 <dbl>, population_age_80_and_older <dbl>
…
