Appendix C — Learning check solutions – Introduction to Statistics and Data Science
…
Solution:

summary_temp_by_day <- weather %>% 
  group_by(year, month, day) %>% 
  summarize(
          mean = mean(temp, na.rm = TRUE),
          std_dev = sd(temp, na.rm = TRUE)
          )

`summarise()` has grouped output by 'year', 'month'. You can override using the
`.groups` argument.

summary_temp_by_day

# A tibble: 364 × 5
# Groups:   year, month [12]
    year month   day  mean std_dev
   <int> <int> <int> <dbl>   <dbl>
 1  2013     1     1  37.0    4.00
 2  2013     1     2  28.7    3.45
 3  2013     1     3  30.0    2.58
 4  2013     1     4  34.9    2.45
 5  2013     1     5  37.2    4.01
 6  2013     1     6  40.1    4.40
 7  2013     1     7  40.6    3.68
 8  2013     1     8  40.1    5.77
 9  2013     1     9  43.2    5.40
10  2013     1    10  43.8    2.95
# ℹ 354 more rows
…
Solution: This question is subjective! What surprises me is the high number of flights to Boston. Wouldn’t it be easier and quicker to take the train?

(LC 3.15) What are some advantages of data in normal forms? What are some disadvantages?

Solution: When datasets are in normal form, we can easily _join them with other datasets! For example, we can join the flights data with the planes data.

(LC 3.16) What are some ways to select all three of the dest, air_time, and distance variables from flights? Give the code showing how to do this in at least three different ways.

Solution:

# The regular way:
flights %>% 
  select(dest, air_time, distance)

# A tibble: 336,776 × 3
   dest  air_time distance
   <chr>    <dbl>    <dbl>
 1 IAH        227     1400
 2 IAH        227     1416
 3 MIA        160     1089
 4 BQN        183     1576
 5 ATL        116      762
 6 ORD        150      719
 7 FLL        158     1065
 8 IAD         53      229
 9 MCO        140      944
10 ORD        138      733
# ℹ 336,766 more rows

# Since they are sequential columns in the dataset
flights %>% 
  select(dest:distance)

# A tibble: 336,776 × 3
   dest  air_time distance
   <chr>    <dbl>    <dbl>
 1 IAH        227     1400
 2 IAH        227     1416
 3 MIA        160     1089
 4 BQN        183     1576
 5 ATL        116      762
 6 ORD        150      719
 7 FLL        158     1065
 8 IAD         53      229
 9 MCO        140      944
10 ORD        138      733
# ℹ 336,766 more rows

# Not as effective, by removing everything else
flights %>% 
  select(-year, -month, -day, -dep_time, -sched_dep_time, -dep_delay, -arr_time,
         -sched_arr_time, -arr_delay, -carrier, -flight, -tailnum, -origin, 
         -hour, -minute, -time_hour)

# A tibble: 336,776 × 3
   dest  air_time distance
   <chr>    <dbl>    <dbl>
 1 IAH        227     1400
 2 IAH        227     1416
 3 MIA        160     1089
 4 BQN        183     1576
 5 ATL        116      762
 6 ORD        150      719
 7 FLL        158     1065
 8 IAD         53      229
 9 MCO        140      944
10 ORD        138      733
# ℹ 336,766 more rows

(LC 3.17) How could one use starts_with, ends_with, and contains to select columns from the flights data frame? Provide three different examples in total: one for starts_with, one for ends_with, and one for contains.

Solution:

# Anything that starts with "d"
flights %>% 
  select(starts_with("d"))

# A tibble: 336,776 × 5
     day dep_time dep_delay dest  distance
   <int>    <int>     <dbl> <chr>    <dbl>
 1     1      517         2 IAH       1400
 2     1      533         4 IAH       1416
 3     1      542         2 MIA       1089
 4     1      544        -1 BQN       1576
 5     1      554        -6 ATL        762
 6     1      554        -4 ORD        719
 7     1      555        -5 FLL       1065
 8     1      557        -3 IAD        229
 9     1      557        -3 MCO        944
10     1      558        -2 ORD        733
# ℹ 336,766 more rows

# Anything related to delays:
flights %>% 
  select(ends_with("delay"))

# A tibble: 336,776 × 2
   dep_delay arr_delay
       <dbl>     <dbl>
 1         2        11
 2         4        20
 3         2        33
 4        -1       -18
 5        -6       -25
 6        -4        12
 7        -5        19
 8        -3       -14
 9        -3        -8
10        -2         8
# ℹ 336,766 more rows

# Anything related to departures:
flights %>% 
  select(contains("dep"))

# A tibble: 336,776 × 3
   dep_time sched_dep_time dep_delay
      <int>          <int>     <dbl>
 1      517            515         2
 2      533            529         4
 3      542            540         2
 4      544            545        -1
 5      554            600        -6
 6      554            558        -4
 7      555            600        -5
 8      557            600        -3
 9      557            600        -3
10      558            600        -2
# ℹ 336,766 more rows
…
Let’s now break this down step-by-step. To compute the available seat miles for a given flight, we need the distance variable from the flights data frame and the seats variable from the planes data frame, necessitating a join by the key variable tailnum as illustrated in Figure 3.3. To keep the resulting data frame easy to view, we’ll select() only these two variables and carrier:

flights %>% 
  inner_join(planes, by = "tailnum") %>% 
  select(carrier, seats, distance)

# A tibble: 284,170 × 3
   carrier seats distance
   <chr>   <int>    <dbl>
 1 UA        149     1400
 2 UA        149     1416
 3 AA        178     1089
 4 B6        200     1576
 5 DL        178      762
 6 UA        191      719
 7 B6        200     1065
 8 EV         55      229
 9 B6        200      944
10 B6        200     1028
# ℹ 284,160 more rows

Now for each flight we can compute the available seat miles ASM by multiplying the number of seats by the distance via a mutate():

flights %>% 
  inner_join(planes, by = "tailnum") %>% 
  select(carrier, seats, distance) %>% 
  # Added:
  mutate(ASM = seats * distance)

# A tibble: 284,170 × 4
   carrier seats distance    ASM
   <chr>   <int>    <dbl>  <dbl>
 1 UA        149     1400 208600
 2 UA        149     1416 210984
 3 AA        178     1089 193842
 4 B6        200     1576 315200
 5 DL        178      762 135636
 6 UA        191      719 137329
 7 B6        200     1065 213000
 8 EV         55      229  12595
 9 B6        200      944 188800
10 B6        200     1028 205600
# ℹ 284,160 more rows
…
(LC 4.2) What makes “tidy” datasets useful for organizing data?

Solution: Tidy datasets are an organized way of viewing data. This format is required for the ggplot2 and dplyr packages for data visualization and wrangling.

(LC 4.3) Take a look the airline_safety data frame included in the fivethirtyeight data. Run the following:

airline_safety

After reading the help file by running ?airline_safety, we see that airline_safety is a data frame containing information on different airlines companies’ safety records. This data was originally reported on the data journalism website FiveThirtyEight.com in Nate Silver’s article “Should Travelers Avoid Flying Airlines That Have Had Crashes in the Past?”. Let’s ignore the incl_reg_subsidiaries and avail_seat_km_per_week variables for simplicity:

airline_safety_smaller <- airline_safety %>% 
  select(-c(incl_reg_subsidiaries, avail_seat_km_per_week))
airline_safety_smaller

# A tibble: 56 × 7
   airline               incidents_85_99 fatal_accidents_85_99 fatalities_85_99
   <chr>                           <int>                 <int>            <int>
 1 Aer Lingus                          2                     0                0
 2 Aeroflot                           76                    14              128
 3 Aerolineas Argentinas               6                     0                0
 4 Aeromexico                          3                     1               64
 5 Air Canada                          2                     0                0
 6 Air France                         14                     4               79
 7 Air India                           2                     1              329
 8 Air New Zealand                     3                     0                0
 9 Alaska Airlines                     5                     0                0
10 Alitalia                            7                     2               50
# ℹ 46 more rows
# ℹ 3 more variables: incidents_00_14 <int>, fatal_accidents_00_14 <int>,
#   fatalities_00_14 <int>

This data frame is not in “tidy” format. How would you convert this data frame to be in “tidy” format, in particular so that it has a variable incident_type_years indicating the indicent type/year and a variable count of the counts?

Solution: Using the gather() function from the tidyr package:

airline_safety_smaller_tidy <- airline_safety_smaller %>% 
  gather(key = incident_type_years, value = count, -airline)
airline_safety_smaller_tidy

# A tibble: 336 × 3
   airline               incident_type_years count
   <chr>                 <chr>               <int>
 1 Aer Lingus            incidents_85_99         2
 2 Aeroflot              incidents_85_99        76
 3 Aerolineas Argentinas incidents_85_99         6
 4 Aeromexico            incidents_85_99         3
 5 Air Canada            incidents_85_99         2
 6 Air France            incidents_85_99        14
 7 Air India             incidents_85_99         2
 8 Air New Zealand       incidents_85_99         3
 9 Alaska Airlines       incidents_85_99         5
10 Alitalia              incidents_85_99         7
# ℹ 326 more rows
…
ℹ Use `spec()` to retrieve the full column specification for this data.
ℹ Specify the column types or set `show_col_types = FALSE` to quiet this message.

dem_score_tidy <- dem_score %>% 
  gather(key = year, value = democracy_score, - country)

Let’s now compare the dem_score and dem_score_tidy. dem_score has democracy score information for each year in columns, whereas in dem_score_tidy there are explicit variables year and democracy_score. While both representations of the data contain the same information, we can only use ggplot() to create plots using the dem_score_tidy data frame.

dem_score

# A tibble: 96 × 10
   country    `1952` `1957` `1962` `1967` `1972` `1977` `1982` `1987` `1992`
   <chr>       <dbl>  <dbl>  <dbl>  <dbl>  <dbl>  <dbl>  <dbl>  <dbl>  <dbl>
 1 Albania        -9     -9     -9     -9     -9     -9     -9     -9      5
 2 Argentina      -9     -1     -1     -9     -9     -9     -8      8      7
 3 Armenia        -9     -7     -7     -7     -7     -7     -7     -7      7
 4 Australia      10     10     10     10     10     10     10     10     10
 5 Austria        10     10     10     10     10     10     10     10     10
 6 Azerbaijan     -9     -7     -7     -7     -7     -7     -7     -7      1
 7 Belarus        -9     -7     -7     -7     -7     -7     -7     -7      7
 8 Belgium        10     10     10     10     10     10     10     10     10
 9 Bhutan        -10    -10    -10    -10    -10    -10    -10    -10    -10
10 Bolivia        -4     -3     -3     -4     -7     -7      8      9      9
# ℹ 86 more rows

dem_score_tidy

# A tibble: 864 × 3
   country    year  democracy_score
   <chr>      <chr>           <dbl>
 1 Albania    1952               -9
 2 Argentina  1952               -9
 3 Armenia    1952               -9
 4 Australia  1952               10
 5 Austria    1952               10
 6 Azerbaijan 1952               -9
 7 Belarus    1952               -9
 8 Belgium    1952               10
 9 Bhutan     1952              -10
10 Bolivia    1952               -4
# ℹ 854 more rows

(LC 4.5) Read in the life expectancy data stored at https://moderndive.com/data/le_mess.csv and convert it to a tidy data frame.

Solution: The code is similar

life_expectancy <- read_csv("https://moderndive.com/data/le_mess.csv")
life_expectancy_tidy <- life_expectancy %>% 
  gather(key = year, value = life_expectancy, -country)

We observe the same construct structure with respect to year in life_expectancy vs life_expectancy_tidy as we did in dem_score vs dem_score_tidy:

life_expectancy

# A tibble: 202 × 67
   country `1951` `1952` `1953` `1954` `1955` `1956` `1957` `1958` `1959` `1960`
   <chr>    <dbl>  <dbl>  <dbl>  <dbl>  <dbl>  <dbl>  <dbl>  <dbl>  <dbl>  <dbl>
 1 Afghan…   27.1   27.7   28.2   28.7   29.3   29.8   30.3   30.9   31.4   31.9
 2 Albania   54.7   55.2   55.8   56.6   57.4   58.4   59.5   60.6   61.8   62.9
 3 Algeria   43.0   43.5   44.0   44.4   44.9   45.4   45.9   46.4   47.0   47.5
 4 Angola    31.0   31.6   32.1   32.7   33.2   33.8   34.3   34.9   35.4   36.0
 5 Antigu…   58.3   58.8   59.3   59.9   60.4   60.9   61.4   62.0   62.5   63.0
 6 Argent…   61.9   62.5   63.1   63.6   64.0   64.4   64.7   65     65.2   65.4
 7 Armenia   62.7   63.1   63.6   64.1   64.5   65     65.4   65.9   66.4   66.9
 8 Aruba     59.0   60.0   61.0   61.9   62.7   63.4   64.1   64.7   65.2   65.7
 9 Austra…   68.7   69.1   69.7   69.8   70.2   70.0   70.3   70.9   70.4   70.9
10 Austria   65.2   66.8   67.3   67.3   67.6   67.7   67.5   68.5   68.4   68.8
# ℹ 192 more rows
# ℹ 56 more variables: `1961` <dbl>, `1962` <dbl>, `1963` <dbl>, `1964` <dbl>,
#   `1965` <dbl>, `1966` <dbl>, `1967` <dbl>, `1968` <dbl>, `1969` <dbl>,
#   `1970` <dbl>, `1971` <dbl>, `1972` <dbl>, `1973` <dbl>, `1974` <dbl>,
#   `1975` <dbl>, `1976` <dbl>, `1977` <dbl>, `1978` <dbl>, `1979` <dbl>,
#   `1980` <dbl>, `1981` <dbl>, `1982` <dbl>, `1983` <dbl>, `1984` <dbl>,
#   `1985` <dbl>, `1986` <dbl>, `1987` <dbl>, `1988` <dbl>, `1989` <dbl>, …

life_expectancy_tidy

# A tibble: 13,332 × 3
   country             year  life_expectancy
   <chr>               <chr>           <dbl>
 1 Afghanistan         1951             27.1
 2 Albania             1951             54.7
 3 Algeria             1951             43.0
 4 Angola              1951             31.0
 5 Antigua and Barbuda 1951             58.3
 6 Argentina           1951             61.9
 7 Armenia             1951             62.7
 8 Aruba               1951             59.0
 9 Australia           1951             68.7
10 Austria             1951             65.2
# ℹ 13,322 more rows
…
evals_ch6 <- evals %>%
  select(ID, score, age, gender)

score_model_parallel_slopes <- lm(score ~ age + gender, data = evals_ch6)

score_model_parallel_data <- evals_ch6 %>% 
  select(score, age, gender) %>% 
  mutate(score_hat = fitted(score_model_parallel_slopes),
         residual = residuals(score_model_parallel_slopes)) %>% 
  rownames_to_column("ID")

score_model_parallel_data

# A tibble: 463 × 6
   ID    score   age gender score_hat residual
   <chr> <dbl> <int> <fct>      <dbl>    <dbl>
 1 1       4.7    36 female      4.17   0.528 
 2 2       4.1    36 female      4.17  -0.0717
 3 3       3.9    36 female      4.17  -0.272 
 4 4       4.8    36 female      4.17   0.628 
 5 5       4.6    59 male        4.16   0.437 
 6 6       4.3    59 male        4.16   0.137 
 7 7       2.8    59 male        4.16  -1.36  
 8 8       4.1    51 male        4.23  -0.132 
 9 9       3.4    51 male        4.23  -0.832 
10 10      4.5    40 female      4.14   0.363 
# ℹ 453 more rows
…
