Introduction to Statistics and Data Science - 10 Confidence Intervals
…
A second way you can decrease the margin of error is by increasing sample size. Recall that all of our formulas for standard errors involve \(n\) on the denominator (see Table 9.6), so by increasing sample size on the denominator, we decrease our standard error. We also saw this demonstrated via simulations in Section 9.5. Because our margin of error formula involves standard error, increasing the sample size decreases the standard error and thus decreases the margin of error. This fits with our intuition that having more infomation (i.e. a larger sample size) will give us a more precise estimate (i.e. a narrower confidence interval) of the parameter we’re interested in.

10.4 Example: One proportion

Let’s revisit our exercise of trying to estimate the proportion of red balls in the bowl from Chapter 9. We are now interested in determining a confidence interval for population parameter \(\pi\), the proportion of balls that are red out of the total \(N = 2400\) red and white balls.

We will use the first sample reported from Ilyas and Yohan in Subsection 9.2.2 for our point estimate. They observed 21 red balls out of the 50 in their shovel. This data is stored in the tactile_shovel1 data frame in the moderndive package.

tactile_shovel1

# A tibble: 50 × 1
   color
   <chr>
 1 white
 2 red  
 3 red  
 4 red  
 5 red  
 6 red  
 7 red  
 8 white
 9 red  
10 white
# ℹ 40 more rows
…
We are 95% confident that the true proportion of red balls in the bowl is between 0.283 and 0.557. Recall that if we were to construct many, many 95% confidence intervals across repeated samples, 95% of them would contain the true mean; so there is a 95% chance that our one confidence interval (from our one observed sample) does contain the true mean.

10.5 Example: Comparing two proportions

If you see someone else yawn, are you more likely to yawn? In an episode of the show Mythbusters, they tested the myth that yawning is contagious. The snippet from the show is available to view in the United States on the Discovery Network website here. More information about the episode is also available on IMDb here.

Fifty adults who thought they were being considered for an appearance on the show were interviewed by a show recruiter (“confederate”) who either yawned or did not. Participants then sat by themselves in a large van and were asked to wait. While in the van, the Mythbusters watched via hidden camera to see if the unaware participants yawned. The data frame containing the results is available at mythbusters_yawn in the moderndive package. Let’s check it out.

mythbusters_yawn

# A tibble: 50 × 3
    subj group   yawn 
   <int> <chr>   <chr>
 1     1 seed    yes  
 2     2 control yes  
 3     3 seed    no   
 4     4 seed    yes  
 5     5 seed    no   
 6     6 control no   
 7     7 seed    yes  
 8     8 control no   
 9     9 control no   
10    10 seed    no   
# ℹ 40 more rows
…
