Introduction to Statistics and Data Science - 11 P-values
…
\[t\_stat = \frac{Estimate - Null \ \ value}{SE(Estimate)}\]

Note this is just a special case of the previous standardization formula we’ve seen before, where here we’re plugging in the “null value” for the mean of the estimate. The null value refers to the value of the population parameter assumed by the null hypothesis. As we mentioned, in many cases the null value is zero. That is, we begin the proof by contradiction by assuming there is no relationship, no differences between groups, etc. in the population.

This standardized statistic \(t\_stat\) is then used to determine the sampling distribution under the null hypothesis and the p-value based upon the observed value.

11.3 P-value and Null Distribution Example

11.3.1 IMDB data

The movies dataset in the ggplot2movies package contains information on 58,788 movies that have been rated by users of IMDB.com.

movies

# A tibble: 58,788 × 24
   title     year length budget rating votes    r1    r2    r3    r4    r5    r6
   <chr>    <int>  <int>  <int>  <dbl> <int> <dbl> <dbl> <dbl> <dbl> <dbl> <dbl>
 1 $         1971    121     NA    6.4   348   4.5   4.5   4.5   4.5  14.5  24.5
 2 $1000 a…  1939     71     NA    6      20   0    14.5   4.5  24.5  14.5  14.5
 3 $21 a D…  1941      7     NA    8.2     5   0     0     0     0     0    24.5
 4 $40,000   1996     70     NA    8.2     6  14.5   0     0     0     0     0  
 5 $50,000…  1975     71     NA    3.4    17  24.5   4.5   0    14.5  14.5   4.5
 6 $pent     2000     91     NA    4.3    45   4.5   4.5   4.5  14.5  14.5  14.5
 7 $windle   2002     93     NA    5.3   200   4.5   0     4.5   4.5  24.5  24.5
 8 '15'      2002     25     NA    6.7    24   4.5   4.5   4.5   4.5   4.5  14.5
 9 '38       1987     97     NA    6.6    18   4.5   4.5   4.5   0     0     0  
10 '49-'17   1917     61     NA    6      51   4.5   0     4.5   4.5   4.5  44.5
# … with 58,778 more rows, and 12 more variables: r7 <dbl>, r8 <dbl>, r9 <dbl>,
#   r10 <dbl>, mpaa <chr>, Action <int>, Animation <int>, Comedy <int>,
#   Drama <int>, Documentary <int>, Romance <int>, Short <int>

We’ll focus on a random sample of 68 movies that are classified as either “action” or “romance” movies but not both. We disregard movies that are classified as both so that we can assign all 68 movies into either category. Furthermore, since the original movies dataset was a little messy, we provided a pre-wrangled version of our data in the movies_sample data frame included in the moderndive package (you can look at the code to do this data wrangling here):

movies_sample

# A tibble: 68 × 4
   title                     year rating genre  
   <chr>                    <int>  <dbl> <chr>  
 1 Underworld                1985    3.1 Action 
 2 Love Affair               1932    6.3 Romance
 3 Junglee                   1961    6.8 Romance
 4 Eversmile, New Jersey     1989    5   Romance
 5 Search and Destroy        1979    4   Action 
 6 Secreto de Romelia, El    1988    4.9 Romance
 7 Amants du Pont-Neuf, Les  1991    7.4 Romance
 8 Illicit Dreams            1995    3.5 Action 
 9 Kabhi Kabhie              1976    7.7 Romance
10 Electric Horseman, The    1979    5.8 Romance
# … with 58 more rows
…
