Introduction to Statistics and Data Science - 12 Hypothesis tests
…
Reject the null hypothesis if the p-value is less than your pre-defined threshold \(\alpha\).

This last point is important – for the hypothesis test to be valid, you must pre-specify your threshold, not after you have seen the p-value in your data.

12.4.1 Promotions Example

Let’s consider a study that investigated gender discrimination in the workplace that was published in the “Journal of Applied Psychology” in 1974. This data is also used in the OpenIntro series of statistics textbooks. Study participants included 48 male bank supervisors who attended a management institute at University of North Carolina in 1972. The supervisors were asked to assume the hypothetical role of a personnel director at the bank. Each supervisor was given a job candidate’s personnel file and asked to decide whether or not the candidate should be promoted to a manager position at the bank.

Each of the personnel files given to the supervisors were identical except that half of them indicated that the candidate was female and half indicated the candidate was male. Personnel files were randomly distributed to the 48 supervisors. Because only the candidate’s gender varied from file to file, and the files were randomly assigned to study participants, the researchers were able to isolate the effect of gender on promotion rates.

The moderndive package contains the data on the 48 candidates in the promotions data frame. Let’s explore this data first:

promotions

# A tibble: 48 × 3
      id decision gender
   <int> <fct>    <fct> 
 1     1 promoted male  
 2     2 promoted male  
 3     3 promoted male  
 4     4 promoted male  
 5     5 promoted male  
 6     6 promoted male  
 7     7 promoted male  
 8     8 promoted male  
 9     9 promoted male  
10    10 promoted male  
# … with 38 more rows
…
